{
  "a": {
    "key": "hamburger.jpg",
    "url": "https://s3.amazonaws.com/jkinniso/hamburger.jpg",
    "timestamp": 1456780595
  },

  "b": {
    "key": "leo-oscar.jpg",
    "url": "https://s3.amazonaws.com/jkinniso/leo-oscar.jpg",
    "timestamp": 1456780595
  },

  "c": {
    "key": "amazing-hotel.jpg",
    "url": "https://s3.amazonaws.com/jkinniso/amazing-hotel.jpg",
    "timestamp": 1456780595
  },

  "d": {
    "key": "dragon-bridge.jpg",
    "url": "https://s3.amazonaws.com/jkinniso/dragon-bridge.jpg",
    "timestamp": 1456780595
  }
}